…
Add some noise:

make_noisyWave <-
  function(sineWave_frame, noiseValue) {
    sineWave_frame %>%
      mutate(
        dissOx = rnorm(nrow(.), mean = dissOx, sd = noiseValue * .007))
  }

noisyWave <-
  make_noisyWave(sineWave, noiseValue = 20)

noisyWave

## # A tibble: 120 x 2
##     time dissOx
##    <int>  <dbl>
##  1     1   9.54
##  2     2   9.51
##  3     3   9.98
##  4     4  10.1 
##  5     5   9.71
##  6     6  10.1 
##  7     7   9.97
##  8     8   9.88
##  9     9   9.97
## 10    10   9.75
## # ... with 110 more rows
…
add_smooth <-
  function(noisyData, smoothingSpan){
    loess(
      dissOx ~ time,
      data = noisyData,
      # Span will control how smoothed the data will be:
      span = smoothingSpan) %>%
      # Predict will return predicted values for a given time:
      predict()
  }

noisyWave %>%
  mutate(dissOx_smooth = add_smooth(., smoothingSpan = 0.3))

## # A tibble: 120 x 3
##     time dissOx dissOx_smooth
##    <int>  <dbl>         <dbl>
##  1     1   9.54          9.89
##  2     2   9.51          9.90
##  3     3   9.98          9.90
##  4     4  10.1           9.89
##  5     5   9.71          9.87
##  6     6  10.1           9.83
##  7     7   9.97          9.79
##  8     8   9.88          9.74
##  9     9   9.97          9.68
## 10    10   9.75          9.60
## # ... with 110 more rows
…
wave_trials

## # A tibble: 120 x 5
##     time dissOx dissOx_smooth slope    trial_group
##    <int>  <dbl>         <dbl> <chr>          <dbl>
##  1     1   9.54          9.89 positive          NA
##  2     2   9.51          9.90 positive          NA
##  3     3   9.98          9.90 negative           1
##  4     4  10.1           9.89 negative           1
##  5     5   9.71          9.87 negative           1
##  6     6  10.1           9.83 negative           1
##  7     7   9.97          9.79 negative           1
##  8     8   9.88          9.74 negative           1
##  9     9   9.97          9.68 negative           1
## 10    10   9.75          9.60 negative           1
## # ... with 110 more rows
…
The method we used to generate these trial groups is cool, but there are a lot of solutions to this problem (for example, using a for loop or purrr::map) Can you think of any issues that you might face in using this method? How could you avoid these problems?

Subset the data

We can now subset the data to only those trial groups (when the slope is decreasing). Because we wrote the code to assign a group number for points with a decreasing slope and assign NA otherwise, we can use our very familiar filter function to extract the observations (rows) of interest. We will use select to extract our variables of interest (trial_group, time, and dissOx).

gilled_iguana <-
  wave_trials %>%
  filter(!is.na(trial_group)) %>%
  select(trial_group, time, dissOx)

gilled_iguana

## # A tibble: 68 x 3
##    trial_group  time dissOx
##          <dbl> <int>  <dbl>
##  1           1     3   9.98
##  2           1     4  10.1 
##  3           1     5   9.71
##  4           1     6  10.1 
##  5           1     7   9.97
##  6           1     8   9.88
##  7           1     9   9.97
##  8           1    10   9.75
##  9           1    11   9.84
## 10           1    12   9.63
## # ... with 58 more rows
…
