…
Just as we extracted to individual points, we can extract temperatures for each point:

tmin_rPoints <-
  raster::extract(
    tmin_sept16_prj,
    rPoints_sp,
    sp = T)

Let’s view the minimum temperature records as a tibble:

tmin_rPoints@data %>%
  as_tibble

## # A tibble: 500 x 1
##    sept16
##  *  <dbl>
##  1   7.56
##  2   2.32
##  3  12.4 
##  4  22.1 
##  5  11.7 
##  6  29.7 
##  7  21.8 
##  8  14.7 
##  9  20.7 
## 10   8.21
## # ... with 490 more rows

A great thing about working with raster stacks is that you can extract values across the entire stack. Let’s extract the values of each of the layers in the raster stack tminStack_prj to the random points we created and view the data frame as a tibble.

raster::extract(
    tminStack_prj,
    rPoints_sp,
    sp = T)@data %>%
  as_tibble

## # A tibble: 500 x 23
##    sept16 PRISM_tmin_early_4km… PRISM_tmin_early_4km… PRISM_tmin_early_4k…
##  *  <dbl>                 <dbl>                 <dbl>                <dbl>
##  1   7.56                  7.41                  7.13                 9.86
##  2   2.32                  1.11                  1.35                 3.25
##  3  12.4                  11.5                  11.3                 12.2 
##  4  22.1                  22.2                  22.3                 23.3 
##  5  11.7                   9.65                  9.22                10.0 
##  6  29.7                  27.7                  27.3                 24.2 
##  7  21.8                  22.5                  23.1                 23.0 
##  8  14.7                  14.0                  13.5                 11.5 
##  9  20.7                  20.3                  21.7                 20.8 
## 10   8.21                  7.78                  6.81                 9.48
## # ... with 490 more rows, and 19 more variables:
## #   PRISM_tmin_early_4kmD1_20180905_bil <dbl>,
## #   PRISM_tmin_early_4kmD1_20180906_bil <dbl>,
## #   PRISM_tmin_early_4kmD1_20180907_bil <dbl>,
## #   PRISM_tmin_early_4kmD1_20180908_bil <dbl>,
## #   PRISM_tmin_early_4kmD1_20180909_bil <dbl>,
## #   PRISM_tmin_early_4kmD1_20180910_bil <dbl>,
## #   PRISM_tmin_early_4kmD1_20180911_bil <dbl>,
## #   PRISM_tmin_early_4kmD1_20180912_bil <dbl>,
…
