…
Let’s take a moment to explore each of these files.

Sites

The sites file consists of three variables:

siteID: a unique identifier of the site

region: the metropolitan area the site is associated with

imp: the percent cover of impervious surface (e.g., pavement, sidewalks, and roofs) within 500 meters of the site center. This variable is used as a proxy fo the degree of urban landcover at a site.

sites

## # A tibble: 128 x 3
##    siteID region   imp
##    <chr>  <chr>  <dbl>
##  1 dc_1   dc     12.1 
##  2 dc_2   dc     17.8 
##  3 dc_3   dc     16.3 
##  4 dc_4   dc     14.9 
##  5 dc_5   dc     13.6 
##  6 dc_6   dc     23.7 
##  7 dc_7   dc      7.39
##  8 dc_8   dc     22.6 
##  9 dc_9   dc      9.79
## 10 dc_10  dc     16.1 
## # ... with 118 more rows
…
colorCombo: color bands placed on the bird, with the left and right legs separated by a comma

mass: the weight of the bird in grams. 99999 represents no data.

wing: the length of the wing in mm. 99999 represents no data.

tl: the length of the tail in mm. 99999 represents no data.

age: the age of the bird (AHY = after hatch year, SY = second year, ASY = after second year)

sex: the sex of the bird (M = male, F = female)

bandingRecords

## # A tibble: 1,117 x 12
##    siteID date       time  enc   spp   bandNumber colorCombo  mass  wing
##    <chr>  <date>     <chr> <chr> <chr> <chr>      <chr>      <dbl> <dbl>
##  1 dc_61  2012-04-18 0930  B     NOCA  791-17230  YY,X        39.6  95.5
##  2 dc_38  2012-05-04 0001  B     GRCA  791-17233  WX,B        38.8  91  
##  3 dc_38  2012-05-04 0001  B     SOSP  2441-96447 Y,XG        22.4  70  
##  4 dc_38  2012-05-04 0001  B     SOSP  2441-96448 OB,X        20.6  64  
##  5 dc_69  2012-05-10 0001  B     GRCA  791-17238  OB,X        37.7  91  
##  6 dc_69  2012-05-10 0001  B     GRCA  791-17239  R,XR        43.3  89  
##  7 dc_69  2012-05-10 0001  B     SOSP  2441-96450 YX,Y        19.4  67  
##  8 dc_69  2012-05-10 0001  B     SOSP  2441-96451 WX,O        22    70  
##  9 dc_6   2012-05-12 0001  B     GRCA  791-17246  WX,B        36.9  91  
## 10 dc_6   2012-05-12 0001  B     GRCA  791-17247  O,MX        41.2  90  
## # ... with 1,107 more rows, and 3 more variables: tl <dbl>, age <chr>,
## #   sex <chr>
…
Resights

The resights file consists of three variables describing a resight event:

date: the date a site was visited, in ISO 8601 date format

bandNumber: the band number, with a dash separating the band prefix and suffix

type: the type of encounter, where P is a participant (citizen scientist) resight and T is a resight by a Smithsonian technician

resights

## # A tibble: 602 x 3
##    date       bandNumber type 
##    <date>     <chr>      <chr>
##  1 2012-01-23 2531-91135 P    
##  2 2012-01-31 1991-18070 T    
##  3 2012-01-31 1991-18072 T    
##  4 2012-01-31 1991-18075 T    
##  5 2012-01-31 1991-18078 T    
##  6 2012-02-25 2531-91135 P    
##  7 2012-07-03 1991-18078 P    
##  8 2012-07-12 1991-18077 P    
##  9 2012-07-12 1991-18080 P    
## 10 2012-07-13 1991-18077 P    
## # ... with 592 more rows
…
 Exercise One:

Create a wide-format summary table that provides the number of birds banded, recaptured, and resighted (across types) per region. Include additional columns that provides the proportion of birds recaptured and resighted, expressed as a percentage.

Preparing data for analysis

The goal of this section is to generate a data frame that is ready to be evaluated using CJS models. It’s a bit of a long process, so it’s good to see what we’re aiming for (a light at the end of the tunnel?). The final product will look something like the table below:

## # A tibble: 1,067 x 8
##    ch     siteID         spp    mass age   sex   region         imp
##    <chr>  <chr>          <chr> <dbl> <chr> <chr> <chr>        <dbl>
##  1 110000 gainesville_7  NOCA   40.9 AHY   M     gainesville  0.796
##  2 100000 gainesville_16 NOCA   39.5 AHY   M     gainesville  5.43 
##  3 100000 gainesville_9  NOCA   43.5 AHY   M     gainesville  9.39 
##  4 100000 springfield_5  GRCA   37   SY    F     springfield 32.2  
##  5 111000 springfield_5  NOCA   43.3 AHY   M     springfield 32.2  
##  6 100000 springfield_10 GRCA   37   AHY   M     springfield 14.5  
##  7 100000 springfield_10 GRCA   39   AHY   F     springfield 14.5  
##  8 100000 springfield_10 NOCA   40   AHY   M     springfield 14.5  
##  9 100000 springfield_1  GRCA   34   AHY   M     springfield 20.5  
## 10 110000 springfield_2  NOCA   43   AHY   M     springfield  1.69 
## # ... with 1,057 more rows
…
banded 5/16

recap 6/14; resight 9/18

Why is the table above a good way to store encounter records? Why is it a really bad way to store encounter records?

Generating encounter histories with long-format data

We can use our long format data frame to generate an encounter history in just a few simple steps. First, we will use the select function to select just the band number and date columns from the bandingRecords and resights data frames:

bandingRecords %>%
      select(bandNumber, date)

## # A tibble: 1,117 x 2
##    bandNumber date      
##    <chr>      <date>    
##  1 791-17230  2012-04-18
##  2 791-17233  2012-05-04
##  3 2441-96447 2012-05-04
##  4 2441-96448 2012-05-04
##  5 791-17238  2012-05-10
##  6 791-17239  2012-05-10
##  7 2441-96450 2012-05-10
##  8 2441-96451 2012-05-10
##  9 791-17246  2012-05-12
## 10 791-17247  2012-05-12
## # ... with 1,107 more rows

resights %>%
      select(bandNumber, date)

## # A tibble: 602 x 2
##    bandNumber date      
##    <chr>      <date>    
##  1 2531-91135 2012-01-23
##  2 1991-18070 2012-01-31
##  3 1991-18072 2012-01-31
##  4 1991-18075 2012-01-31
##  5 1991-18078 2012-01-31
##  6 2531-91135 2012-02-25
##  7 1991-18078 2012-07-03
##  8 1991-18077 2012-07-12
##  9 1991-18080 2012-07-12
## 10 1991-18077 2012-07-13
## # ... with 592 more rows

Because these two data frames have the same column names, we can safely bind them into a single frame using bind_rows():

bind_rows(
  bandingRecords %>%
    select(bandNumber, date),
  resights %>%
    select(bandNumber, date)
)

## # A tibble: 1,719 x 2
##    bandNumber date      
##    <chr>      <date>    
##  1 791-17230  2012-04-18
##  2 791-17233  2012-05-04
##  3 2441-96447 2012-05-04
##  4 2441-96448 2012-05-04
##  5 791-17238  2012-05-10
##  6 791-17239  2012-05-10
##  7 2441-96450 2012-05-10
##  8 2441-96451 2012-05-10
##  9 791-17246  2012-05-12
## 10 791-17247  2012-05-12
## # ... with 1,709 more rows

We can use the transmute function with year() (a function from the lubridate package) to make a data frame of just band number and year:

bind_rows(
  bandingRecords %>%
    select(bandNumber, date),
  resights %>%
    select(bandNumber, date)
) %>%
  transmute(
    bandNumber,
    year = year(date))

## # A tibble: 1,719 x 2
##    bandNumber  year
##    <chr>      <dbl>
##  1 791-17230   2012
##  2 791-17233   2012
##  3 2441-96447  2012
##  4 2441-96448  2012
##  5 791-17238   2012
##  6 791-17239   2012
##  7 2441-96450  2012
##  8 2441-96451  2012
##  9 791-17246   2012
## 10 791-17247   2012
## # ... with 1,709 more rows

If we arrange these data by band number, however, we can quickly notice that we have generated duplicate records:

bind_rows(
  bandingRecords %>%
    select(bandNumber, date),
  resights %>%
    select(bandNumber, date)
) %>%
  transmute(
    bandNumber,
    year = year(date)) %>%
  arrange(bandNumber)

## # A tibble: 1,719 x 2
##    bandNumber  year
##    <chr>      <dbl>
##  1 1292-71301  2012
##  2 1292-71301  2013
##  3 1292-71311  2012
##  4 1292-71313  2012
##  5 1891-11010  2012
##  6 1891-11011  2012
##  7 1891-11011  2012
##  8 1891-11011  2013
##  9 1891-11011  2013
## 10 1891-11011  2013
## # ... with 1,709 more rows

To counter this problem, we can use the function distinct to remove duplicate records:

bind_rows(
  bandingRecords %>%
    select(bandNumber, date),
  resights %>%
    select(bandNumber, date)
) %>%
  transmute(
    bandNumber,
    year = year(date)) %>%
  distinct

## # A tibble: 1,407 x 2
##    bandNumber  year
##    <chr>      <dbl>
##  1 791-17230   2012
##  2 791-17233   2012
##  3 2441-96447  2012
##  4 2441-96448  2012
##  5 791-17238   2012
##  6 791-17239   2012
##  7 2441-96450  2012
##  8 2441-96451  2012
##  9 791-17246   2012
## 10 791-17247   2012
## # ... with 1,397 more rows
…
We are now ready to make the encounter history file! To do so, we start by adding a dummy column where all encounters are defined as 1:

encountersLong %>%
  mutate(enc = 1)

## # A tibble: 1,407 x 3
##    bandNumber  year   enc
##    <chr>      <dbl> <dbl>
##  1 791-17230   2012     1
##  2 791-17233   2012     1
##  3 2441-96447  2012     1
##  4 2441-96448  2012     1
##  5 791-17238   2012     1
##  6 791-17239   2012     1
##  7 2441-96450  2012     1
##  8 2441-96451  2012     1
##  9 791-17246   2012     1
## 10 791-17247   2012     1
## # ... with 1,397 more rows

We now use spread() make encountersLong into a wide-format object. The dummy column enc is useful here, because that is the value that is provided to the cells. We use the argument fill = 0 to fill any missing values with 0:

encountersLong %>%
  mutate(enc = 1) %>%
  spread(key = year, value = enc, fill = 0)

## # A tibble: 1,023 x 7
##    bandNumber `2012` `2013` `2014` `2015` `2016` `2017`
##    <chr>       <dbl>  <dbl>  <dbl>  <dbl>  <dbl>  <dbl>
##  1 1292-71301      1      1      0      0      0      0
##  2 1292-71311      1      0      0      0      0      0
##  3 1292-71313      1      0      0      0      0      0
##  4 1891-11010      1      0      0      0      0      0
##  5 1891-11011      1      1      1      0      0      0
##  6 1891-11017      1      0      0      0      0      0
##  7 1891-11018      1      0      0      0      0      0
##  8 1891-11019      1      0      0      0      0      0
##  9 1891-11020      1      0      0      0      0      0
## 10 1891-11021      1      1      0      0      0      0
## # ... with 1,013 more rows

The input to a CJS model is actually a vector character values called the “capture history” in which the 1s and 0s across the columns of the encounter history are collapsed into a single value. For example, the capture history for the first bird in our encountersWide frame is “110000”. To make the capture history we will use a new function, unite, as below:

encountersLong %>%
  mutate(enc = 1) %>%
  spread(key = year, value = enc, fill = 0) %>%
  unite(ch, -bandNumber, sep = '')

## # A tibble: 1,023 x 2
##    bandNumber ch    
##    <chr>      <chr> 
##  1 1292-71301 110000
##  2 1292-71311 100000
##  3 1292-71313 100000
##  4 1891-11010 100000
##  5 1891-11011 111000
##  6 1891-11017 100000
##  7 1891-11018 100000
##  8 1891-11019 100000
##  9 1891-11020 100000
## 10 1891-11021 110000
## # ... with 1,013 more rows

Including banding and environmental data into encounter histories

The above is a great start, and we could run a simple CJS model with these data, but thus far we only have what it takes to model apparent survival and detection probabilities with no other variables – not even species!

Using band number as the common column, we can bring in some banding data to inform our models. Let’s select some columns from bandingRecords that we would like to include in our models. We’ll subset the records to just those associated with the initial banding event.

bandingRecords %>%
  filter(enc == 'B') %>%
  select(bandNumber, siteID, spp, mass, age, sex)

## # A tibble: 1,032 x 6
##    bandNumber siteID spp    mass age   sex  
##    <chr>      <chr>  <chr> <dbl> <chr> <chr>
##  1 791-17230  dc_61  NOCA   39.6 AHY   F    
##  2 791-17233  dc_38  GRCA   38.8 AHY   M    
##  3 2441-96447 dc_38  SOSP   22.4 AHY   M    
##  4 2441-96448 dc_38  SOSP   20.6 AHY   M    
##  5 791-17238  dc_69  GRCA   37.7 AHY   M    
##  6 791-17239  dc_69  GRCA   43.3 AHY   F    
##  7 2441-96450 dc_69  SOSP   19.4 AHY   M    
##  8 2441-96451 dc_69  SOSP   22   AHY   M    
##  9 791-17246  dc_6   GRCA   36.9 AHY   M    
## 10 791-17247  dc_6   GRCA   41.2 AHY   M    
## # ... with 1,022 more rows
We will now join this file to our encounter history. We’ll remove the bandNumber column, because we no longer need it:

encountersLong %>%
  mutate(enc = 1) %>%
  spread(key = year, value = enc, fill = 0) %>%
  unite(ch, -bandNumber, sep = '') %>%
  left_join(
    bandingRecords %>%
      filter(enc == 'B') %>%
      select(bandNumber, siteID, spp, mass, age, sex),
    by = 'bandNumber'
  ) %>%
  select(-bandNumber)

## # A tibble: 1,032 x 6
##    ch     siteID         spp    mass age   sex  
##    <chr>  <chr>          <chr> <dbl> <chr> <chr>
##  1 110000 gainesville_7  NOCA   40.9 AHY   M    
##  2 100000 gainesville_16 NOCA   39.5 AHY   M    
##  3 100000 gainesville_9  NOCA   43.5 AHY   M    
##  4 100000 springfield_5  GRCA   37   SY    F    
##  5 111000 springfield_5  NOCA   43.3 AHY   M    
##  6 100000 springfield_10 GRCA   37   AHY   M    
##  7 100000 springfield_10 GRCA   39   AHY   F    
##  8 100000 springfield_10 NOCA   40   AHY   M    
##  9 100000 springfield_1  GRCA   34   AHY   M    
## 10 110000 springfield_2  NOCA   43   AHY   M    
## # ... with 1,022 more rows
…
