…
Exercise 2. Revisiting the World Health Organizations population dataset:

For this question, you will use a preloaded data frame object named population. Please take a moment to explore this object:

population

Assign the name whoPopulation to the population data frame.

whoPopulation <- population

Subset whoPopulation to the countries Jamaica, Bahamas, Cuba.

whoPopulation[whoPopulation$country %in% c('Jamaica', 'Bahamas', 'Cuba'), ]

## # A tibble: 57 x 3
##    country  year population
##    <chr>   <int>      <int>
##  1 Bahamas  1995     280050
##  2 Bahamas  1996     283678
##  3 Bahamas  1997     286845
##  4 Bahamas  1998     289926
##  5 Bahamas  1999     293442
##  6 Bahamas  2000     297759
##  7 Bahamas  2001     303005
##  8 Bahamas  2002     309039
##  9 Bahamas  2003     315624
## 10 Bahamas  2004     322400
## # ... with 47 more rows

Subset whoPopulation to the the year 2012.

whoPopulation[whoPopulation$year == 2012, ]

## # A tibble: 217 x 3
##    country              year population
##    <chr>               <int>      <int>
##  1 Afghanistan          2012   29824536
##  2 Albania              2012    3162083
##  3 Algeria              2012   38481705
##  4 American Samoa       2012      55128
##  5 Andorra              2012      78360
##  6 Angola               2012   20820525
##  7 Anguilla             2012      14132
##  8 Antigua and Barbuda  2012      89069
##  9 Argentina            2012   41086927
## 10 Armenia              2012    2969081
## # ... with 207 more rows

Subset whoPopulation to only countries that include the word State in their names.

whoPopulation[str_detect(whoPopulation$country, 'State'), ]

## # A tibble: 57 x 3
##    country                           year population
##    <chr>                            <int>      <int>
##  1 Bolivia (Plurinational State of)  1995    7635362
##  2 Bolivia (Plurinational State of)  1996    7806953
##  3 Bolivia (Plurinational State of)  1997    7978521
##  4 Bolivia (Plurinational State of)  1998    8150214
##  5 Bolivia (Plurinational State of)  1999    8322408
##  6 Bolivia (Plurinational State of)  2000    8495271
##  7 Bolivia (Plurinational State of)  2001    8669066
##  8 Bolivia (Plurinational State of)  2002    8843350
##  9 Bolivia (Plurinational State of)  2003    9016787
## 10 Bolivia (Plurinational State of)  2004    9187610
## # ... with 47 more rows
…
